<svg xmlns="http://www.w3.org/2000/svg" xmlns:xlink="http://www.w3.org/1999/xlink" preserveAspectRatio="xMidYMid" width="14.781" height="27.5" viewBox="0 0 14.781 27.5">
  <defs>
    <style>
      .cls-1 {
        fill: #bc1d2b;
        fill-rule: evenodd;
      }
    </style>
  </defs>
  <path d="M13.109,27.208 C13.299,27.398 13.536,27.493 13.797,27.493 C14.058,27.493 14.295,27.398 14.485,27.208 C14.865,26.829 14.865,26.213 14.485,25.833 L2.383,13.740 L14.485,1.647 C14.865,1.268 14.865,0.652 14.485,0.272 C14.105,-0.107 13.488,-0.107 13.109,0.272 L0.294,13.053 C-0.085,13.432 -0.085,14.049 0.294,14.428 L13.109,27.208 Z" class="cls-1"/>
</svg>
